HW4. T-tests and ANOVA
…
colnames(mono_socio) <- c("ParticipantID", "TypeOfQuestion", "QuestionCategory", "Response")

see also reading key for the data

mono_socio

## # A tibble: 180 x 4
##    ParticipantID                  TypeOfQuestion QuestionCategory Response      
##    <chr>                          <chr>          <chr>            <chr>         
##  1 2bc93481d25426f259a0f1a3d5d3e Form           age              58            
##  2 2bc93481d25426f259a0f1a3d5d3e Form           country1         Nicosia       
##  3 2bc93481d25426f259a0f1a3d5d3e Form           country2         Kaimakli,Nico
##  4 2bc93481d25426f259a0f1a3d5d3e Form           education        College       
##  5 2bc93481d25426f259a0f1a3d5d3e Form           handedness       right         
##  6 2bc93481d25426f259a0f1a3d5d3e Form           sex              female        
##  7 4b4c9debd4aedeb1fd3dfc9f1cab3 Form           age              24            
##  8 4b4c9debd4aedeb1fd3dfc9f1cab3 Form           country1         Nicosia       
##  9 4b4c9debd4aedeb1fd3dfc9f1cab3 Form           country2         Nicosia       
## 10 4b4c9debd4aedeb1fd3dfc9f1cab3 Form           education        UniversityDeg
## #  with 170 more rows
…
Answer: I dont think that we observe normal distribution here. The mean is obviously skewed to the left. It is quite asymetrical. The right tail is considerably longer. There are a few suspicious outliers as demonstrated in the code cell below.

paste('Min:', min(mono$RT), 'Max:', max(mono$RT))

## [1] "Min: 14 Max: 76992"

1.3

Normalise data applying the logarithm with base 10 (RTlog = log10(RT)). Use mutate.

mono <- mono %>%
  mutate(RTlog = log10(RT))
mono

## # A tibble: 7,560 x 7
##    ParticipantID TypeOfQuestion TypeOfStimuli WordOrder ResponseAccepta    RT
##    <chr>         <chr>          <chr>         <chr>     <chr>            <dbl>
##  1 00e0b159cf5b Acceptability Size-Nationa Congruent Correct           1591
##  2 00e0b159cf5b Acceptability Size-Nationa Incongru Correct           5504
##  3 00e0b159cf5b Acceptability Size-Nationa Congruent Correct           1333
##  4 00e0b159cf5b Acceptability Size-Nationa Incongru Correct           1543
##  5 00e0b159cf5b Acceptability Size-Nationa Congruent Correct           1815
##  6 00e0b159cf5b Acceptability Size-Nationa Incongru Correct           3059
##  7 00e0b159cf5b Acceptability Shape-Color   Congruent Correct           1700
##  8 00e0b159cf5b Acceptability Shape-Color   Incongru Correct           2745
##  9 00e0b159cf5b Acceptability Shape-Color   Congruent Correct           3237
## 10 00e0b159cf5b Acceptability Shape-Color   Incongru Correct           2911
## #  with 7,550 more rows, and 1 more variable: RTlog <dbl>
…
mono1 <- 
  mono %>% 
  filter(RT > left_boundary & RT < right_boundary) %>%
  filter(RTlog > left_boundary_log & RTlog < right_boundary_log) %>%
  filter(TypeOfStimuli != 'FillerUnacceptable' & TypeOfStimuli != 'FillerAcceptable') %>%
  select(ParticipantID, TypeOfStimuli, WordOrder, AcceptabilityJ =
  ResponseAcceptabilityJudgement, RTlog) %>%
   mutate(ParticipantID = as.factor(ParticipantID),
     TypeOfStimuli = as.factor(TypeOfStimuli),
          WordOrder = as.factor(WordOrder),
          AcceptabilityJ = as.factor(AcceptabilityJ))

mono1

## # A tibble: 2,468 x 5
##    ParticipantID                 TypeOfStimuli   WordOrder  AcceptabilityJ RTlog
##    <fct>                         <fct>           <fct>      <fct>          <dbl>
##  1 00e0b159cf5b9abcc73b92506d8b Size-Nationali Congruent  Correct         3.20
##  2 00e0b159cf5b9abcc73b92506d8b Size-Nationali Incongrue Correct         3.74
##  3 00e0b159cf5b9abcc73b92506d8b Size-Nationali Congruent  Correct         3.12
##  4 00e0b159cf5b9abcc73b92506d8b Size-Nationali Incongrue Correct         3.19
##  5 00e0b159cf5b9abcc73b92506d8b Size-Nationali Congruent  Correct         3.26
##  6 00e0b159cf5b9abcc73b92506d8b Size-Nationali Incongrue Correct         3.49
##  7 00e0b159cf5b9abcc73b92506d8b Shape-Color     Congruent  Correct         3.23
##  8 00e0b159cf5b9abcc73b92506d8b Shape-Color     Incongrue Correct         3.44
##  9 00e0b159cf5b9abcc73b92506d8b Shape-Color     Congruent  Correct         3.51
## 10 00e0b159cf5b9abcc73b92506d8b Shape-Color     Incongrue Correct         3.46
## #  with 2,458 more rows
…
mean_rtlog_long <- 
  mono1 %>%
  group_by(ParticipantID, WordOrder) %>%
  summarise(RTlog = round(mean(RTlog), digits = 2))

mean_rtlog_long

## # A tibble: 280 x 3
## # Groups:   ParticipantID [140]
##    ParticipantID                    WordOrder   RTlog
##    <fct>                            <fct>       <dbl>
##  1 00e0b159cf5b9abcc73b92506d8b1c38 Congruent    3.24
##  2 00e0b159cf5b9abcc73b92506d8b1c38 Incongruent  3.47
##  3 021a49cde484f8fa18439f026ec99459 Congruent    3.22
##  4 021a49cde484f8fa18439f026ec99459 Incongruent  3.21
##  5 02810ff2a65eae2b3e54ac57d906309d Congruent    3.46
##  6 02810ff2a65eae2b3e54ac57d906309d Incongruent  3.36
##  7 037c50e80288a89b13f4c77e0b825789 Congruent    3.55
##  8 037c50e80288a89b13f4c77e0b825789 Incongruent  3.55
##  9 054635a48143f6d4dd711cbb00b9f6fd Congruent    3.22
## 10 054635a48143f6d4dd711cbb00b9f6fd Incongruent  3.18
## #  with 270 more rows
…
# A tibble: 140 x 3
   ParticipantID                    Congruent Incongruent
   <fct>                                <dbl>       <dbl>
 1 00e0b159cf5b9abcc73b92506d8b1c38      3.24        3.47
 2 021a49cde484f8fa18439f026ec99459      3.22        3.21
 3 02810ff2a65eae2b3e54ac57d906309d      3.46        3.36

mean_rtlog <-
  mean_rtlog_long %>%
  pivot_wider(names_from = WordOrder, values_from = RTlog)

mean_rtlog

## # A tibble: 140 x 3
## # Groups:   ParticipantID [140]
##    ParticipantID                    Congruent Incongruent
##    <fct>                                <dbl>       <dbl>
##  1 00e0b159cf5b9abcc73b92506d8b1c38      3.24        3.47
##  2 021a49cde484f8fa18439f026ec99459      3.22        3.21
##  3 02810ff2a65eae2b3e54ac57d906309d      3.46        3.36
##  4 037c50e80288a89b13f4c77e0b825789      3.55        3.55
##  5 054635a48143f6d4dd711cbb00b9f6fd      3.22        3.18
##  6 066f8885734d3b91f905df8c23195a27      3.39        3.38
##  7 086805c265966ff2a53482f3b6c1328c      3.37        3.42
##  8 0912f84f2fb81492f8e7a4c5c02d33a9      3.18        3.21
##  9 09b1c9e98227331746533f60cc9b2c2d      3.33        3.43
## 10 0a14b7b4f101746c9cd29fbaa746ba5e      3.42        3.45
## #  with 130 more rows
…
What claim about logarithms of reaction time for Congruent and Incongruent stimuli can you make according to this test?

Answer: Logarithms of reaction time are distributed in a similar way for both Congruent and Incongruent stimuli.

2.4. Paired t-test: manually

To use paired t-test, let us find difference between logarithms of reaction time for each participant. Use mutate and add variable diff with aforementioned meaning to dataframe mean_rtlog. Save result as mean_rtlog again. Then compare mean of diff with 0 using 1-sample t-test. (Use appropriate alternative.)

mean_rtlog <-
  mean_rtlog %>%
  mutate(diff = Congruent  - Incongruent)

mean_rtlog

## # A tibble: 140 x 4
## # Groups:   ParticipantID [140]
##    ParticipantID                    Congruent Incongruent    diff
##    <fct>                                <dbl>       <dbl>   <dbl>
##  1 00e0b159cf5b9abcc73b92506d8b1c38      3.24        3.47 -0.23  
##  2 021a49cde484f8fa18439f026ec99459      3.22        3.21  0.01  
##  3 02810ff2a65eae2b3e54ac57d906309d      3.46        3.36  0.1   
##  4 037c50e80288a89b13f4c77e0b825789      3.55        3.55  0     
##  5 054635a48143f6d4dd711cbb00b9f6fd      3.22        3.18  0.04  
##  6 066f8885734d3b91f905df8c23195a27      3.39        3.38  0.01  
##  7 086805c265966ff2a53482f3b6c1328c      3.37        3.42 -0.0500
##  8 0912f84f2fb81492f8e7a4c5c02d33a9      3.18        3.21 -0.0300
##  9 09b1c9e98227331746533f60cc9b2c2d      3.33        3.43 -0.1   
## 10 0a14b7b4f101746c9cd29fbaa746ba5e      3.42        3.45 -0.03  
## #  with 130 more rows
…
